{
  "advisoryNote": [
    {"ops":[{"attributes":{"bold":true},"insert":"Advisory:"},{"insert":" Cerana Farms is closed to visitors indefinitely until the Enhanced Community Quarantine is lifted.\n"}]}
  ]
}
