{
  "businessTimes": [
    {
      "day": "Monday - Friday",
      "time": {
        "from": "7:00 AM",
        "to": "4:30 PM"
      }
    },
    {
      "day": "Saturday",
      "time": {
        "from": "7:00 AM",
        "to": "4:30 PM"
      }
    },
    {
      "day": "Sunday",
      "time": {
        "from": "",
        "to": ""
      }
    }
  ]
}
