{
  "contactInformation" : {
    "mapLocation": "https://www.google.com/maps/place/Cerana+Farms,+Inc./@15.3143112,120.0598087,15z/data=!4m12!1m6!3m5!1s0x0:0x213a6cc153289f7e!2sCerana+Farms,+Inc.!8m2!3d15.3143112!4d120.0598087!3m4!1s0x0:0x213a6cc153289f7e!8m2!3d15.3143112!4d120.0598087",
    "address1": "Purok 1 Brgy. Belbel,",
    "address2": "Botolan Zambales 2022,",
    "country": "Philippines",
    "email": "jake.mactal@ceranafarms.com",
    "mobile": "+63 945 3477 490"
  }
}
